%YAML 1.1
%TAG !u! tag:unity3d.com,2011:
--- !u!1045 &1
EditorBuildSettings:
  m_ObjectHideFlags: 0
  serializedVersion: 2
  m_Scenes:
  - enabled: 1
    path: Assets/_BreakoutClone/Scenes/BreakoutGame.unity
    guid: 9fc0d4010bbf28b4594072e72b8655ab
  m_configObjects: {}
